name	pronouns	description
Normative Pronomen	sie,er	Du kannst nicht-binär sein und gleichzeitig die Pronomen nutzen, die dir bei der Geburt zugewiesen wurden – oder aber diesen normativ gegenübergestellt sind.
Neutrum	es	Das Pronomen „es“ ist zwar sehr häufig und gebräuchlich im Deutschen, aber nicht im Bezug auf Menschen, sondern z.B. auf Gegenstände, Tiere, Orte. Da „es“ in der Vergangenheit transfeindlich verwendet wurde, und es auch heute von transphoben Personen noch immer wird, solltest du vorsichtig sein und dieses Pronomen nur benutzen, wenn die entsprechende Person es sich ausdrücklich wünscht.
Neopronomen	dey,die,el,em,en,et,ey,hän,hen,hie,iks,ind,nin,oj,per,ser,sier,they,xier,zet,ersie	Im Gegensatz zu anderen Pronomen, die offiziell als „grammatikalisch korrekt“ anerkannt werden, sind Neopronomen neu geschaffen. Doch nur weil sie (noch) nicht in offiziellen Wörterbüchern stehen, sind sie noch lange nicht „schlechter“ oder „falsch“!
Pronomen mit Sonderzeichen	er:sie,er*sie,er_sie	Diese Pronomen benutzen Sonderzeichen, die der Trennung der Bestandteile dienen und vor einem Vokal als {https://de.wikipedia.org/wiki/Glottaler_Plosiv=Glottisschlag} ausgesprochen werden.
